…
``` r
# first I rename the Vancouver_trees data set to make it easier when running analysis 
van_trees <- vancouver_trees

#select the appropriate variables for this question

q1_sum <- van_trees %>% 
          select(genus_name,height_range_id,diameter) %>% 
          group_by(genus_name) %>% 
          summarise(mean = mean(diameter), n= n(), max = max(diameter), min = min(diameter), median = median(diameter), sd = sd(diameter))

q1_sum
```

    ## # A tibble: 97 × 7
    ##    genus_name   mean     n   max   min median    sd
    ##    <chr>       <dbl> <int> <dbl> <dbl>  <dbl> <dbl>
    ##  1 ABIES       12.9    190  42.5     1  12     9.71
    ##  2 ACER        10.6  36062 317       0   8     8.76
    ##  3 AESCULUS    23.7   2570  64       0  25     9.57
    ##  4 AILANTHUS   15.9      4  21.5     3  19.5   8.64
    ##  5 ALBIZIA      6        1   6       6   6    NA   
    ##  6 ALNUS       17.5     74  40       0  17.5   8.94
    ##  7 AMELANCHIER  3.21   226  20       0   3     1.79
    ##  8 ARALIA       6.81     4  12       3   6.12  3.92
    ##  9 ARAUCARIA   11.4     10  32       3   8.5   9.92
    ## 10 ARBUTUS     18.4     10  33       6  17.5  10.7 
    ## # … with 87 more rows
…
``` r
q2_sum <- van_trees %>% 
          group_by(genus_name,neighbourhood_name) %>% 
          summarise(n= n()) %>% 
          arrange(desc(n))
```

    ## `summarise()` has grouped output by 'genus_name'. You can override using the `.groups` argument.

``` r
q2_sum
```

    ## # A tibble: 1,303 × 3
    ## # Groups:   genus_name [97]
    ##    genus_name neighbourhood_name           n
    ##    <chr>      <chr>                    <int>
    ##  1 PRUNUS     DUNBAR-SOUTHLANDS         2554
    ##  2 ACER       HASTINGS-SUNRISE          2508
    ##  3 ACER       DUNBAR-SOUTHLANDS         2464
    ##  4 PRUNUS     RENFREW-COLLINGWOOD       2443
    ##  5 ACER       KENSINGTON-CEDAR COTTAGE  2438
    ##  6 ACER       RENFREW-COLLINGWOOD       2395
    ##  7 PRUNUS     VICTORIA-FRASERVIEW       2330
    ##  8 ACER       KITSILANO                 2211
    ##  9 PRUNUS     SUNSET                    2163
    ## 10 ACER       DOWNTOWN                  2043
    ## # … with 1,293 more rows
…
    ## `summarise()` has grouped output by 'year'. You can override using the `.groups` argument.

``` r
q3_sum
```

    ## # A tibble: 61 × 4
    ## # Groups:   year [31]
    ##     year curb      n   max
    ##    <dbl> <chr> <int> <int>
    ##  1  1989 Y       185   185
    ##  2  1990 N        24    24
    ##  3  1990 Y       441   441
    ##  4  1991 N        19    19
    ##  5  1991 Y       276   276
    ##  6  1992 N        19    19
    ##  7  1992 Y       892   892
    ##  8  1993 N         4     4
    ##  9  1993 Y      1055  1055
    ## 10  1994 N         9     9
    ## # … with 51 more rows
…
### 2.2 Untidying\_Van\_trees

Making the vantress data untidy, here I am changing the data into a
wider format.

``` r
untidy_data <- van_trees %>% 
            drop_na() %>% 
            pivot_wider(names_from = species_name, values_from = diameter, values_fill = 0)

untidy_data
```

    ## # A tibble: 41,859 × 107
    ##    tree_id civic_number std_street genus_name cultivar_name common_name assigned
    ##      <dbl>        <dbl> <chr>      <chr>      <chr>         <chr>       <chr>   
    ##  1  149556          494 W 58TH AV  ULMUS      BRANDON       BRANDON ELM N       
    ##  2  149590          858 E 39TH AV  FRAXINUS   AUTUMN APPLA… AUTUMN APP… Y       
    ##  3  149617         4909 SHERBROOK… ACER       COLUMNARE     COLUMNAR N… N       
    ##  4  149618         4925 SHERBROOK… ACER       COLUMNARE     COLUMNAR N… N       
    ##  5  149619         4969 SHERBROOK… ACER       COLUMNARE     COLUMNAR N… N       
    ##  6  149625          720 E 39TH AV  FRAXINUS   AUTUMN APPLA… AUTUMN APP… N       
    ##  7  149640         6968 SELKIRK ST ACER       COLUMNARE     COLUMNAR N… N       
    ##  8  149673         5241 WINDSOR ST FRAXINUS   RAYWOOD       RAYWOOD ASH N       
    ##  9  149683         7011 SELKIRK ST ACER       COLUMNARE     COLUMNAR N… N       
    ## 10  149684         1223 W 54TH AV  ACER       COLUMNARE     COLUMNAR N… N       
    ## # … with 41,849 more rows, and 100 more variables: root_barrier <chr>,
    ## #   plant_area <chr>, on_street_block <dbl>, on_street <chr>,
    ## #   neighbourhood_name <chr>, street_side_name <chr>, height_range_id <dbl>,
    ## #   curb <chr>, date_planted <date>, longitude <dbl>, latitude <dbl>,
    ## #   AMERICANA <dbl>, PLATANOIDES <dbl>, OXYCARPA <dbl>, CERASIFERA <dbl>,
    ## #   CALLERYANA <dbl>, FREEMANI   X <dbl>, RUBRUM <dbl>, PENNSYLVANICA <dbl>,
    ## #   X YEDOENSIS <dbl>, TRIACANTHOS <dbl>, SERRULATA <dbl>, CRUS-GALLI <dbl>, …

Each species is now its own individual column with its diameter.

In this next section I transform the data from untidy to tidy using the
pivot longer function.Where the species is now associated witha genus
and the diameter is also it’s own column

``` r
tidy_data <- untidy_data %>% 
            pivot_longer(col = 19:107,names_to = "species_name", values_to =  "diameter")
  
tidy_data  
```

    ## # A tibble: 3,725,451 × 20
    ##    tree_id civic_number std_street genus_name cultivar_name common_name assigned
    ##      <dbl>        <dbl> <chr>      <chr>      <chr>         <chr>       <chr>   
    ##  1  149556          494 W 58TH AV  ULMUS      BRANDON       BRANDON ELM N       
    ##  2  149556          494 W 58TH AV  ULMUS      BRANDON       BRANDON ELM N       
    ##  3  149556          494 W 58TH AV  ULMUS      BRANDON       BRANDON ELM N       
    ##  4  149556          494 W 58TH AV  ULMUS      BRANDON       BRANDON ELM N       
    ##  5  149556          494 W 58TH AV  ULMUS      BRANDON       BRANDON ELM N       
    ##  6  149556          494 W 58TH AV  ULMUS      BRANDON       BRANDON ELM N       
    ##  7  149556          494 W 58TH AV  ULMUS      BRANDON       BRANDON ELM N       
    ##  8  149556          494 W 58TH AV  ULMUS      BRANDON       BRANDON ELM N       
    ##  9  149556          494 W 58TH AV  ULMUS      BRANDON       BRANDON ELM N       
    ## 10  149556          494 W 58TH AV  ULMUS      BRANDON       BRANDON ELM N       
    ## # … with 3,725,441 more rows, and 13 more variables: root_barrier <chr>,
    ## #   plant_area <chr>, on_street_block <dbl>, on_street <chr>,
    ## #   neighbourhood_name <chr>, street_side_name <chr>, height_range_id <dbl>,
    ## #   curb <chr>, date_planted <date>, longitude <dbl>, latitude <dbl>,
    ## #   species_name <chr>, diameter <dbl>
…
I choose these two questions as they are very interesting and will also
allow me to explore some geom layers such as geom\_map together with
making summaries. For this last assignment the tibble I will use can be
seen below

``` r
#cleaning data, separating , creating  and selecting only columns I will use)
mda3_t <- van_trees %>% 
                drop_na() %>% 
                separate(col = date_planted, into = c("year","month","day"),sep="-")%>% 
                mutate(year = as.numeric(year))%>%   select(tree_id,genus_name,species_name,longitude,latitude,neighbourhood_name,year)
mda3_t 
```

    ## # A tibble: 41,859 × 7
    ##    tree_id genus_name species_name longitude latitude neighbourhood_name    year
    ##      <dbl> <chr>      <chr>            <dbl>    <dbl> <chr>                <dbl>
    ##  1  149556 ULMUS      AMERICANA        -123.     49.2 MARPOLE               1999
    ##  2  149590 FRAXINUS   AMERICANA        -123.     49.2 KENSINGTON-CEDAR CO…  1996
    ##  3  149617 ACER       PLATANOIDES      -123.     49.2 KENSINGTON-CEDAR CO…  1993
    ##  4  149618 ACER       PLATANOIDES      -123.     49.2 KENSINGTON-CEDAR CO…  1993
    ##  5  149619 ACER       PLATANOIDES      -123.     49.2 KENSINGTON-CEDAR CO…  1993
    ##  6  149625 FRAXINUS   AMERICANA        -123.     49.2 KENSINGTON-CEDAR CO…  1993
    ##  7  149640 ACER       PLATANOIDES      -123.     49.2 OAKRIDGE              1993
    ##  8  149673 FRAXINUS   OXYCARPA         -123.     49.2 KENSINGTON-CEDAR CO…  1993
    ##  9  149683 ACER       PLATANOIDES      -123.     49.2 OAKRIDGE              1993
    ## 10  149684 ACER       PLATANOIDES      -123.     49.2 OAKRIDGE              1993
    ## # … with 41,849 more rows
