…
**2.parking\_meters**

As a new comer to Vancouver analyzing this data, will give me a better
understanding on Vancouver, where trees and parking meters are located
and what access I have them, which neighborhoods.

``` r
#seeing the different neighborhoods that trees and parking meters are located 
loc_tree <- vancouver_trees %>% 
              group_by(neighbourhood_name)  %>% 
              tally()  
loc_tree
```

    ## # A tibble: 22 × 2
    ##    neighbourhood_name           n
    ##    <chr>                    <int>
    ##  1 ARBUTUS-RIDGE             5169
    ##  2 DOWNTOWN                  5159
    ##  3 DUNBAR-SOUTHLANDS         9415
    ##  4 FAIRVIEW                  4002
    ##  5 GRANDVIEW-WOODLAND        6703
    ##  6 HASTINGS-SUNRISE         10547
    ##  7 KENSINGTON-CEDAR COTTAGE 11042
    ##  8 KERRISDALE                6936
    ##  9 KILLARNEY                 6148
    ## 10 KITSILANO                 8115
    ## # … with 12 more rows
…
## 2.1d Current Age of tree.

This new variable will help me know how old the. the oldest tree is
planted. Given the date the analysis is being carried out.

``` r
# created a new variable called age_tree using lubridate
age_tree <- van_trees %>% 
             mutate(age_tree =trunc(van_trees$date_planted %--%  (Sys.Date()) / years(1))) %>%  #lubridate for calculating age and trunc for rounding off see link at end of chunk
      arrange(desc(age_tree)) # arranged age from olderst to youngest tree 

age_tree
```

    ## # A tibble: 146,611 × 21
    ##    tree_id civic_number std_street   genus_name species_name cultivar_name
    ##      <dbl>        <dbl> <chr>        <chr>      <chr>        <chr>        
    ##  1  122127          412 E 46TH AV    TILIA      CORDATA      <NA>         
    ##  2  122130          434 E 46TH AV    TILIA      CORDATA      <NA>         
    ##  3   31395         2105 W 32ND AV    TILIA      CORDATA      <NA>         
    ##  4   31396         2105 W 32ND AV    TILIA      CORDATA      <NA>         
    ##  5   34719         3408 W 36TH AV    TILIA      EUCHLORA   X <NA>         
    ##  6   59867         5715 BERKELEY ST  PRUNUS     SERRULATA    KWANZAN      
    ##  7   62833         1203 BROUGHTON ST ACER       RUBRUM       RED SUNSET   
    ##  8   68625         7520 COLUMBIA ST  ACER       RUBRUM       <NA>         
    ##  9   68629         7580 COLUMBIA ST  ACER       RUBRUM       <NA>         
    ## 10   68630         7620 COLUMBIA ST  ACER       RUBRUM       <NA>         
    ## # … with 146,601 more rows, and 15 more variables: common_name <chr>,
    ## #   assigned <chr>, root_barrier <chr>, plant_area <chr>,
    ## #   on_street_block <dbl>, on_street <chr>, neighbourhood_name <chr>,
    ## #   street_side_name <chr>, height_range_id <dbl>, diameter <dbl>, curb <chr>,
    ## #   date_planted <date>, longitude <dbl>, latitude <dbl>, age_tree <dbl>
…
## 2.1e Which genus has tree older than 10 years and diameter greater than 10

I did this as a bons question to test the use of filter, in this simple
example I used a simple criteria to select which trees are older than 10
and have a diameter of ten

``` r
tree_ten <- age_tree %>% 
            group_by(genus_name) %>% 
            filter(age_tree >= 10, diameter >=10)
tree_ten
```

    ## # A tibble: 9,771 × 21
    ## # Groups:   genus_name [63]
    ##    tree_id civic_number std_street  genus_name species_name cultivar_name
    ##      <dbl>        <dbl> <chr>       <chr>      <chr>        <chr>        
    ##  1  122127          412 E 46TH AV   TILIA      CORDATA      <NA>         
    ##  2  122130          434 E 46TH AV   TILIA      CORDATA      <NA>         
    ##  3   31395         2105 W 32ND AV   TILIA      CORDATA      <NA>         
    ##  4   31396         2105 W 32ND AV   TILIA      CORDATA      <NA>         
    ##  5   34719         3408 W 36TH AV   TILIA      EUCHLORA   X <NA>         
    ##  6   59867         5715 BERKELEY ST PRUNUS     SERRULATA    KWANZAN      
    ##  7   68625         7520 COLUMBIA ST ACER       RUBRUM       <NA>         
    ##  8   68629         7580 COLUMBIA ST ACER       RUBRUM       <NA>         
    ##  9   68630         7620 COLUMBIA ST ACER       RUBRUM       <NA>         
    ## 10   68631         7620 COLUMBIA ST ACER       RUBRUM       <NA>         
    ## # … with 9,761 more rows, and 15 more variables: common_name <chr>,
    ## #   assigned <chr>, root_barrier <chr>, plant_area <chr>,
    ## #   on_street_block <dbl>, on_street <chr>, neighbourhood_name <chr>,
    ## #   street_side_name <chr>, height_range_id <dbl>, diameter <dbl>, curb <chr>,
    ## #   date_planted <date>, longitude <dbl>, latitude <dbl>, age_tree <dbl>
…
